{
    "type": "minecraft:crafting_shaped",
    "pattern": [
        "iii",
        "PPP",
        " i "
    ],
    "key": {
        "i": {
            "item": "minecraft:iron_ingot"
        },
        "P": {
            "tag": "dynocaps:pistons"
        }
    },
    "result": {
        "count":1,
        "item":"dynocaps:compressor"
    }
}